{
	"info": {
		"_postman_id": "0a97150e-f1d3-41a6-ac94-f3a677866f2b",
		"name": "GET_product_by_name_tests",
		"schema": "https://schema.getpostman.com/json/collection/v2.1.0/collection.json"
	},
	"item": [
		{
			"name": "https://localhost:5001/api/product?name=Produto1",
			"event": [
				{
					"listen": "test",
					"script": {
						"id": "0cba4590-2c82-4c7d-8809-c6bc07852763",
						"exec": [
							"pm.test(\"Status code is 200\", function () {",
							"    pm.response.to.have.status(200);",
							"});",
							"",
							"let contentTypeHeaderExists = responseHeaders.hasOwnProperty(\"Content-Type\");",
							"tests[\"Has Content-Type\"] = contentTypeHeaderExists;",
							"if (contentTypeHeaderExists) {",
							"tests[\"Content-Type is application/json\"] = responseHeaders[\"Content-Type\"].has(\"application/json\");",
							"}",
							"",
							"let jsonData = pm.response.json();",
							"",
							"pm.test(\"Test response status\", function () {",
							"    pm.response.to.have.status(200);",
							"});",
							"",
							"pm.test(\"Test product ID\", function () {",
							"    pm.expect(jsonData.id).to.eql(1);",
							"});",
							"",
							"pm.test(\"Test product name\", function () {",
							"    pm.expect(jsonData.name).to.eql('Produto1');",
							"});",
							"",
							"pm.test(\"Test product price\", function () {",
							"    pm.expect(jsonData.price).to.eql(50.5);",
							"});",
							"",
							"pm.test(\"Test the ID of the category of the product\", function () {",
							"    pm.expect(jsonData.categoryId).to.eql(1);",
							"});",
							"",
							"pm.test(\"Test if the dimensions of the product are of the correct type\", function () {",
							"    pm.expect(jsonData.possibleDimensions.isDiscrete).to.eql(true);",
							"});",
							"",
							"pm.test(\"Test the possible widths of the product\", function () {",
							"    pm.expect(jsonData.possibleDimensions.width).length(3);",
							"    pm.expect(jsonData.possibleDimensions.width).to.include(1);",
							"    pm.expect(jsonData.possibleDimensions.width).to.include(2);",
							"    pm.expect(jsonData.possibleDimensions.width).to.include(3);",
							"});",
							"",
							"pm.test(\"Test the possible heights of the product\", function () {",
							"    pm.expect(jsonData.possibleDimensions.height).length(2);",
							"    pm.expect(jsonData.possibleDimensions.height).to.include(1);",
							"    pm.expect(jsonData.possibleDimensions.height).to.include(3);",
							"});",
							"",
							"pm.test(\"Test the materials and finishes of the product\", function () {",
							"    pm.expect(jsonData.materialsAndFinishes).length(1);",
							"    pm.expect(jsonData.materialsAndFinishes).to.include(1);",
							"});"
						],
						"type": "text/javascript"
					}
				}
			],
			"request": {
				"method": "GET",
				"header": [],
				"body": {
					"mode": "raw",
					"raw": ""
				},
				"url": {
					"raw": "https://localhost:5001/api/product?name=Produto1",
					"protocol": "https",
					"host": [
						"localhost"
					],
					"port": "5001",
					"path": [
						"api",
						"product"
					],
					"query": [
						{
							"key": "name",
							"value": "Produto1"
						}
					]
				},
				"description": "Testing Produto1"
			},
			"response": []
		},
		{
			"name": "https://localhost:5001/api/product?name=Produto2",
			"event": [
				{
					"listen": "test",
					"script": {
						"id": "0cba4590-2c82-4c7d-8809-c6bc07852763",
						"exec": [
							"pm.test(\"Status code is 200\", function () {",
							"    pm.response.to.have.status(200);",
							"});",
							"",
							"let contentTypeHeaderExists = responseHeaders.hasOwnProperty(\"Content-Type\");",
							"tests[\"Has Content-Type\"] = contentTypeHeaderExists;",
							"if (contentTypeHeaderExists) {",
							"tests[\"Content-Type is application/json\"] = responseHeaders[\"Content-Type\"].has(\"application/json\");",
							"}",
							"",
							"let jsonData = pm.response.json();",
							"",
							"pm.test(\"Test response status\", function () {",
							"    pm.response.to.have.status(200);",
							"});",
							"",
							"pm.test(\"Test product ID\", function () {",
							"    pm.expect(jsonData.id).to.eql(2);",
							"});",
							"",
							"pm.test(\"Test product name\", function () {",
							"    pm.expect(jsonData.name).to.eql('Produto2');",
							"});",
							"",
							"pm.test(\"Test product price\", function () {",
							"    pm.expect(jsonData.price).to.eql(40);",
							"});",
							"",
							"pm.test(\"Test the ID of the category of the product\", function () {",
							"    pm.expect(jsonData.categoryId).to.eql(4);",
							"});",
							"",
							"pm.test(\"Test if the dimensions of the product are of the correct type\", function () {",
							"    pm.expect(jsonData.possibleDimensions.isDiscrete).to.eql(false);",
							"});",
							"",
							"pm.test(\"Test the number of widths of the product (continuous should be 2)\", function () {",
							"    pm.expect(jsonData.possibleDimensions.width).length(2);",
							"});",
							"",
							"pm.test(\"Test the minimum width of the product\", function () {",
							"    pm.expect(jsonData.possibleDimensions.width).to.include(1.7);",
							"});",
							"",
							"pm.test(\"Test the maximum width of the product\", function () {",
							"    pm.expect(jsonData.possibleDimensions.width).to.include(9.1);",
							"});",
							"",
							"pm.test(\"Test the number of heights of the product (continuous should be 2)\", function () {",
							"    pm.expect(jsonData.possibleDimensions.height).length(2);",
							"});",
							"",
							"pm.test(\"Test the minimum height of the product\", function () {",
							"    pm.expect(jsonData.possibleDimensions.height).to.include(2.7);",
							"});",
							"",
							"pm.test(\"Test the maximum height of the product\", function () {",
							"    pm.expect(jsonData.possibleDimensions.height).to.include(5.8);",
							"});",
							"",
							"",
							"pm.test(\"Test the materials and finishes of the product\", function () {",
							"    pm.expect(jsonData.materialsAndFinishes).length(2);",
							"    pm.expect(jsonData.materialsAndFinishes).to.include(1);",
							"    pm.expect(jsonData.materialsAndFinishes).to.include(2);",
							"});"
						],
						"type": "text/javascript"
					}
				}
			],
			"request": {
				"method": "GET",
				"header": [],
				"body": {
					"mode": "raw",
					"raw": ""
				},
				"url": {
					"raw": "https://localhost:5001/api/product?name=Produto2",
					"protocol": "https",
					"host": [
						"localhost"
					],
					"port": "5001",
					"path": [
						"api",
						"product"
					],
					"query": [
						{
							"key": "name",
							"value": "Produto2"
						}
					]
				},
				"description": "Testing Produto2"
			},
			"response": []
		},
		{
			"name": "https://localhost:5001/api/product?name=Produto25",
			"event": [
				{
					"listen": "test",
					"script": {
						"id": "0cba4590-2c82-4c7d-8809-c6bc07852763",
						"exec": [
							"pm.test(\"Status code is 404\", function () {",
							"    pm.response.to.have.status(404);",
							"});",
							"",
							"let contentTypeHeaderExists = responseHeaders.hasOwnProperty(\"Content-Type\");",
							"tests[\"Has Content-Type\"] = contentTypeHeaderExists;",
							"if (contentTypeHeaderExists) {",
							"tests[\"Content-Type is application/json\"] = responseHeaders[\"Content-Type\"].has(\"application/json\");",
							"}",
							"",
							"let jsonData = pm.response.json();",
							"",
							"pm.test(\"Error message should be \\\"Product with specified name not found.\\\" \", function () {",
							"    pm.expect(jsonData.errorMessage).to.eql('Product with specified name not found.');",
							"});",
							"",
							"pm.test(\"Test response status\", function () {",
							"    pm.response.to.have.status(404);",
							"});",
							""
						],
						"type": "text/javascript"
					}
				}
			],
			"request": {
				"method": "GET",
				"header": [],
				"body": {
					"mode": "raw",
					"raw": ""
				},
				"url": {
					"raw": "https://localhost:5001/api/product?name=Produto25",
					"protocol": "https",
					"host": [
						"localhost"
					],
					"port": "5001",
					"path": [
						"api",
						"product"
					],
					"query": [
						{
							"key": "name",
							"value": "Produto25"
						}
					]
				},
				"description": "Testing Produto25"
			},
			"response": []
		}
	]
}