{
	"info": {
		"_postman_id": "ff9bd5ee-9efe-4397-bcb9-5c1a55cc223a",
		"name": "Get Item",
		"schema": "https://schema.getpostman.com/json/collection/v2.1.0/collection.json"
	},
	"item": [
		{
			"name": "Item nao encontrado",
			"event": [
				{
					"listen": "test",
					"script": {
						"id": "df322853-6d50-4402-a6da-a15cd5188538",
						"exec": [
							"pm.test(\"Status code is 404 if item doesn't exists\", function () {",
							"    pm.response.to.have.status(404);",
							"});",
							"",
							"pm.test(\"Response time is less than 200ms\", function () {",
							"    pm.expect(pm.response.responseTime).to.be.below(200);",
							"});"
						],
						"type": "text/javascript"
					}
				}
			],
			"request": {
				"method": "GET",
				"header": [],
				"body": {
					"mode": "raw",
					"raw": ""
				},
				"url": {
					"raw": "http://localhost:8080/item/5bd355b19e8e154718ba1b09",
					"protocol": "http",
					"host": [
						"localhost"
					],
					"port": "8080",
					"path": [
						"item",
						"5bd355b19e8e154718ba1b09"
					]
				}
			},
			"response": []
		},
		{
			"name": "Item existe",
			"event": [
				{
					"listen": "test",
					"script": {
						"id": "dc7f44a2-711c-4f3b-b755-038b675f55c1",
						"exec": [
							"var data = JSON.parse(responseBody);",
							"",
							"pm.test(\"Status code is 200 if item exists\", function () {",
							"    pm.response.to.have.status(200);",
							"});",
							"",
							"pm.test(\"Response should contain id\", function () {",
							"    pm.expect(data).to.have.property('id');",
							"});",
							"",
							"pm.test(\"Response should contain children\", function () {",
							"    pm.expect(data).to.have.property('children');",
							"});",
							"",
							"pm.test(\"Response should contain productId\", function () {",
							"    pm.expect(data).to.have.property('productId');",
							"});",
							"",
							"pm.test(\"Response should contain finish\", function () {",
							"    pm.expect(data).to.have.property('finish');",
							"});",
							"",
							"pm.test(\"Response should contain width\", function () {",
							"    pm.expect(data).to.have.property('width');",
							"});",
							"",
							"pm.test(\"Response should contain height\", function () {",
							"    pm.expect(data).to.have.property('height');",
							"});",
							"",
							"pm.test(\"Response should contain depth\", function () {",
							"    pm.expect(data).to.have.property('depth');",
							"});",
							"",
							"",
							"pm.test(\"Reponse body should be in json\", function() {",
							"   pm.response.to.have.header(\"Content-Type\");",
							"   pm.response.to.be.header(\"Content-Type\", \"application/json; charset=utf-8\");",
							"});",
							"",
							"pm.test(\"Response time is less than 200ms\", function () {",
							"    pm.expect(pm.response.responseTime).to.be.below(200);",
							"});"
						],
						"type": "text/javascript"
					}
				}
			],
			"request": {
				"method": "GET",
				"header": [],
				"body": {
					"mode": "raw",
					"raw": ""
				},
				"url": {
					"raw": "http://localhost:8080/item/5be42eda4f709a3f80668c05",
					"protocol": "http",
					"host": [
						"localhost"
					],
					"port": "8080",
					"path": [
						"item",
						"5be42eda4f709a3f80668c05"
					]
				}
			},
			"response": []
		}
	],
	"event": [
		{
			"listen": "prerequest",
			"script": {
				"id": "0631885c-7d9f-4cca-a3a8-1050659cb887",
				"type": "text/javascript",
				"exec": [
					""
				]
			}
		},
		{
			"listen": "test",
			"script": {
				"id": "f0b39ced-5716-4217-bf5d-4eec1c3b357e",
				"type": "text/javascript",
				"exec": [
					""
				]
			}
		}
	]
}