{
	"info": {
		"_postman_id": "c24cd2f0-c594-46dc-9671-085179d9e141",
		"name": "FábricaMaisPróxima",
		"schema": "https://schema.getpostman.com/json/collection/v2.1.0/collection.json"
	},
	"item": [
		{
			"name": "TestCodPostal=4870",
			"event": [
				{
					"listen": "test",
					"script": {
						"id": "c581c898-7146-40e8-ba35-fe33aeed1ff7",
						"exec": [
							"let jsonData = pm.response.json();\r",
							"\r",
							"pm.test(\"Status code is 200\", function(){\r",
							"pm.response.to.be.status(200);\r",
							"});\r",
							"\r",
							"\r",
							"pm.test(\"Client Place is Vila Real\", function(){\r",
							"    var d= jsonData.clientePlace;\r",
							"    pm.expect(d).to.eql(\"vilaReal\");\r",
							"});\r",
							"\r",
							"\r",
							"pm.test(\"Client Place not Empty\", function(){\r",
							"pm.expect(jsonData.clientePlace).to.not.eql(\" \");\r",
							"});\r",
							"\r",
							"pm.test(\"Factory Place is Porto\", function(){\r",
							"    var d= jsonData.factoryPlace;\r",
							"    pm.expect(d).to.eql(\"porto\");\r",
							"});\r",
							"\r",
							"\r",
							"pm.test(\"Factory Place not Empty\", function(){\r",
							"pm.expect(jsonData.factoryPlace).to.not.eql(\" \");\r",
							"});\r",
							""
						],
						"type": "text/javascript"
					}
				}
			],
			"request": {
				"method": "GET",
				"header": [],
				"body": {
					"mode": "raw",
					"raw": ""
				},
				"url": {
					"raw": "http://localhost:8090/nearestFactory?city=4870",
					"protocol": "http",
					"host": [
						"localhost"
					],
					"port": "8090",
					"path": [
						"nearestFactory"
					],
					"query": [
						{
							"key": "city",
							"value": "4870"
						}
					]
				},
				"description": "TestCodPostal=4780->Vila Real"
			},
			"response": []
		}
	]
}