{
    "item": {
        "productName": "Armario",
        "material": "madeira",
        "finish": 1,
        "width": "6",
        "height": "5",
        "depth": "1",
        "category": "module",
        "children": [
            {
                "productName": "minimodulo2Door",
                "material": "madeira3",
                "finish": 1,
                "width": "6",
                "height": "1",
                "depth": "1",
                "category": "insideModule2Door",
                "children": []
            },
            {
                "productName": "minimodulo",
                "material": "madeira3",
                "finish": 1,
                "width": "6",
                "height": "1",
                "depth": "1",
                "category": "insideModule",
                "children": [
                    {
                        "productName": "Gaveta",
                        "material": "madeira2",
                        "finish": 1,
                        "width": "3",
                        "height": "1",
                        "depth": "1",
                        "category": "drawer",
                        "children": []
                    },
                    {
                        "productName": "Gaveta",
                        "material": "madeira",
                        "finish": 1,
                        "width": "1",
                        "height": "1",
                        "depth": "1",
                        "category": "drawer",
                        "children": []
                    }
                ]
            },
            {
                "productName": "Gaveta",
                "material": "madeira",
                "finish": 1,
                "width": "3",
                "height": "1",
                "depth": "1",
                "category": "drawer",
                "children": []
            },
            {
                "productName": "Gaveta",
                "material": "madeira",
                "finish": 1,
                "width": "4",
                "height": "1",
                "depth": "1",
                "category": "drawer",
                "children": []
            },
            {
                "productName": "Gaveta",
                "material": "madeira",
                "finish": 1,
                "width": "6",
                "height": "1",
                "depth": "1",
                "category": "drawer",
                "children": []
            }
        ]
    }
}