{
	"info": {
		"_postman_id": "a4798c88-fc88-45bc-8597-94bac8d0be29",
		"name": "GET_parents_of_product_tests",
		"schema": "https://schema.getpostman.com/json/collection/v2.1.0/collection.json"
	},
	"item": [
		{
			"name": "https://localhost:5001/api/product/1/partOf",
			"event": [
				{
					"listen": "test",
					"script": {
						"id": "5d28cdad-efdd-4c40-8a6c-8e9d7bdeb5ec",
						"exec": [
							"pm.test(\"Status code is 200\", function () {",
							"    pm.response.to.have.status(200);",
							"});",
							"",
							"let contentTypeHeaderExists = responseHeaders.hasOwnProperty(\"Content-Type\");",
							"tests[\"Has Content-Type\"] = contentTypeHeaderExists;",
							"if (contentTypeHeaderExists) {",
							"tests[\"Content-Type is application/json\"] = responseHeaders[\"Content-Type\"].has(\"application/json\");",
							"}",
							"",
							"let jsonData = pm.response.json();",
							"",
							"pm.test(\"Test response status\", function () {",
							"    pm.response.to.have.status(200);",
							"});",
							"",
							"pm.test(\"Test child ID\", function () {",
							"    pm.expect(jsonData.childID).to.eql(1);",
							"});",
							"",
							"pm.test(\"Test the parents of the product\", function () {",
							"    pm.expect(jsonData.parentsIDs).length(1);",
							"    pm.expect(jsonData.parentsIDs).to.include(3);",
							"});"
						],
						"type": "text/javascript"
					}
				}
			],
			"request": {
				"method": "GET",
				"header": [],
				"body": {
					"mode": "raw",
					"raw": ""
				},
				"url": {
					"raw": "https://localhost:5001/api/product/1/partOf",
					"protocol": "https",
					"host": [
						"localhost"
					],
					"port": "5001",
					"path": [
						"api",
						"product",
						"1",
						"partOf"
					]
				},
				"description": "Testing parents of Produto1 (1 parent)"
			},
			"response": []
		},
		{
			"name": "https://localhost:5001/api/product/2/partOf",
			"event": [
				{
					"listen": "test",
					"script": {
						"id": "5d28cdad-efdd-4c40-8a6c-8e9d7bdeb5ec",
						"exec": [
							"pm.test(\"Status code is 200\", function () {",
							"    pm.response.to.have.status(200);",
							"});",
							"",
							"let contentTypeHeaderExists = responseHeaders.hasOwnProperty(\"Content-Type\");",
							"tests[\"Has Content-Type\"] = contentTypeHeaderExists;",
							"if (contentTypeHeaderExists) {",
							"tests[\"Content-Type is application/json\"] = responseHeaders[\"Content-Type\"].has(\"application/json\");",
							"}",
							"",
							"let jsonData = pm.response.json();",
							"",
							"pm.test(\"Test response status\", function () {",
							"    pm.response.to.have.status(200);",
							"});",
							"",
							"pm.test(\"Test child ID\", function () {",
							"    pm.expect(jsonData.childID).to.eql(2);",
							"});",
							"",
							"pm.test(\"Test the parents of the product\", function () {",
							"    pm.expect(jsonData.parentsIDs).length(2);",
							"    pm.expect(jsonData.parentsIDs).to.include(1);",
							"    pm.expect(jsonData.parentsIDs).to.include(3);",
							"});"
						],
						"type": "text/javascript"
					}
				}
			],
			"request": {
				"method": "GET",
				"header": [],
				"body": {
					"mode": "raw",
					"raw": ""
				},
				"url": {
					"raw": "https://localhost:5001/api/product/2/partOf",
					"protocol": "https",
					"host": [
						"localhost"
					],
					"port": "5001",
					"path": [
						"api",
						"product",
						"2",
						"partOf"
					]
				},
				"description": "Testing parents of Produto2 (multiple parents)"
			},
			"response": []
		},
		{
			"name": "https://localhost:5001/api/product/3/partOf",
			"event": [
				{
					"listen": "test",
					"script": {
						"id": "5d28cdad-efdd-4c40-8a6c-8e9d7bdeb5ec",
						"exec": [
							"pm.test(\"Status code is 200\", function () {",
							"    pm.response.to.have.status(200);",
							"});",
							"",
							"let contentTypeHeaderExists = responseHeaders.hasOwnProperty(\"Content-Type\");",
							"tests[\"Has Content-Type\"] = contentTypeHeaderExists;",
							"if (contentTypeHeaderExists) {",
							"tests[\"Content-Type is application/json\"] = responseHeaders[\"Content-Type\"].has(\"application/json\");",
							"}",
							"",
							"let jsonData = pm.response.json();",
							"",
							"pm.test(\"Test response status\", function () {",
							"    pm.response.to.have.status(200);",
							"});",
							"",
							"pm.test(\"Test child ID\", function () {",
							"    pm.expect(jsonData.childID).to.eql(3);",
							"});",
							"",
							"pm.test(\"Test the parents of the product\", function () {",
							"    pm.expect(jsonData.parentsIDs).length(0);",
							"});"
						],
						"type": "text/javascript"
					}
				}
			],
			"request": {
				"method": "GET",
				"header": [],
				"body": {
					"mode": "raw",
					"raw": ""
				},
				"url": {
					"raw": "https://localhost:5001/api/product/3/partOf",
					"protocol": "https",
					"host": [
						"localhost"
					],
					"port": "5001",
					"path": [
						"api",
						"product",
						"3",
						"partOf"
					]
				},
				"description": "Testing parents of Produto3 (non-existant)"
			},
			"response": []
		},
		{
			"name": "https://localhost:5001/api/product/25/partOf",
			"event": [
				{
					"listen": "test",
					"script": {
						"id": "5d28cdad-efdd-4c40-8a6c-8e9d7bdeb5ec",
						"exec": [
							"pm.test(\"Status code is 200\", function () {",
							"    pm.response.to.have.status(200);",
							"});",
							"",
							"let contentTypeHeaderExists = responseHeaders.hasOwnProperty(\"Content-Type\");",
							"tests[\"Has Content-Type\"] = contentTypeHeaderExists;",
							"if (contentTypeHeaderExists) {",
							"tests[\"Content-Type is application/json\"] = responseHeaders[\"Content-Type\"].has(\"application/json\");",
							"}",
							"",
							"let jsonData = pm.response.json();",
							"",
							"pm.test(\"Test response status\", function () {",
							"    pm.response.to.have.status(200);",
							"});",
							"",
							"pm.test(\"Test child ID\", function () {",
							"    pm.expect(jsonData.childID).to.eql(25);",
							"});",
							"",
							"pm.test(\"Test the parents of the product\", function () {",
							"    pm.expect(jsonData.parentsIDs).length(0);",
							"});"
						],
						"type": "text/javascript"
					}
				}
			],
			"request": {
				"method": "GET",
				"header": [],
				"body": {
					"mode": "raw",
					"raw": ""
				},
				"url": {
					"raw": "https://localhost:5001/api/product/25/partOf",
					"protocol": "https",
					"host": [
						"localhost"
					],
					"port": "5001",
					"path": [
						"api",
						"product",
						"25",
						"partOf"
					]
				},
				"description": "Testing parents of non-existant product"
			},
			"response": []
		}
	]
}